module github.com/metafates/mangal

go 1.18

require (
	github.com/BurntSushi/toml v1.1.0
	github.com/charmbracelet/bubbles v0.10.3
	github.com/charmbracelet/bubbletea v0.19.3
	github.com/charmbracelet/lipgloss v0.4.0
	github.com/gocolly/colly v1.2.0
	github.com/pdfcpu/pdfcpu v0.3.13
	github.com/skratchdot/open-golang v0.0.0-20200116055534-eef842397966
	github.com/spf13/afero v1.8.2
	github.com/spf13/cobra v1.4.0
	golang.org/x/exp v0.0.0-20220518171630-0b5c67f07fdf
	golang.org/x/term v0.0.0-20210422114643-f5beecf764ed
)

require (
	github.com/PuerkitoBio/goquery v1.8.0 // indirect
	github.com/andybalholm/cascadia v1.3.1 // indirect
	github.com/antchfx/htmlquery v1.2.4 // indirect
	github.com/antchfx/xmlquery v1.3.10 // indirect
	github.com/antchfx/xpath v1.2.0 // indirect
	github.com/atotto/clipboard v0.1.4 // indirect
	github.com/charmbracelet/harmonica v0.1.0 // indirect
	github.com/containerd/console v1.0.2 // indirect
	github.com/gobwas/glob v0.2.3 // indirect
	github.com/golang/groupcache v0.0.0-20200121045136-8c9f03a8e57e // indirect
	github.com/golang/protobuf v1.4.3 // indirect
	github.com/hhrutter/lzw v0.0.0-20190829144645-6f07a24e8650 // indirect
	github.com/hhrutter/tiff v0.0.0-20190829141212-736cae8d0bc7 // indirect
	github.com/inconshreveable/mousetrap v1.0.0 // indirect
	github.com/kennygrant/sanitize v1.2.4 // indirect
	github.com/lucasb-eyer/go-colorful v1.2.0 // indirect
	github.com/mattn/go-isatty v0.0.13 // indirect
	github.com/mattn/go-runewidth v0.0.13 // indirect
	github.com/muesli/ansi v0.0.0-20211018074035-2e021307bc4b // indirect
	github.com/muesli/reflow v0.3.0 // indirect
	github.com/muesli/termenv v0.9.0 // indirect
	github.com/pkg/errors v0.9.1 // indirect
	github.com/rivo/uniseg v0.2.0 // indirect
	github.com/sahilm/fuzzy v0.1.0 // indirect
	github.com/saintfish/chardet v0.0.0-20120816061221-3af4cd4741ca // indirect
	github.com/spf13/pflag v1.0.5 // indirect
	github.com/temoto/robotstxt v1.1.2 // indirect
	golang.org/x/image v0.0.0-20210220032944-ac19c3e999fb // indirect
	golang.org/x/net v0.0.0-20210916014120-12bc252f5db8 // indirect
	golang.org/x/sys v0.0.0-20211019181941-9d821ace8654 // indirect
	golang.org/x/text v0.3.6 // indirect
	google.golang.org/appengine v1.6.7 // indirect
	google.golang.org/protobuf v1.25.0 // indirect
	gopkg.in/yaml.v2 v2.4.0 // indirect
)
